{
  "adminFundSourceList.sourceOfFunds": "Source Of Funds",
  "adminFundSourceList.addSourceOfFund": "Add Source Of Fund",
  "adminFundSourceList.noSourceOfFund": "No Source Of Funds found.",
  "adminFundSourceList.sourceOfFundCode": "Source Of Fund Code",
  "adminFundSourceList.sourceOfFundName": "Source Of Fund Name",
  "adminFundSourceList.displayOrder": "Display Order",
  "adminFundSourceList.actions": "Actions",
  "adminFundSourceList.edit": "Edit",
  "adminFundSourceList.sourceOfFund.list": "Source Of Fund List"
}
